…
zori_nyc <- zori_nyc_long %>%
  left_join(zipmap, by = c("zip","borough")) %>%
  relocate(zip, borough, neighborhood, date, zori) %>%
  filter(!is.na(zori))

zori_nyc
```

    ## # A tibble: 10,450 × 5
    ##    zip   borough   neighborhood        date        zori
    ##    <chr> <chr>     <chr>               <date>     <dbl>
    ##  1 10001 Manhattan Chelsea and Clinton 2015-01-01 3855.
    ##  2 10001 Manhattan Chelsea and Clinton 2015-02-01 3892.
    ##  3 10001 Manhattan Chelsea and Clinton 2015-03-01 3898.
    ##  4 10001 Manhattan Chelsea and Clinton 2015-04-01 3970.
    ##  5 10001 Manhattan Chelsea and Clinton 2015-05-01 4033.
    ##  6 10001 Manhattan Chelsea and Clinton 2015-06-01 4071.
    ##  7 10001 Manhattan Chelsea and Clinton 2015-07-01 4067.
    ##  8 10001 Manhattan Chelsea and Clinton 2015-08-01 4070.
    ##  9 10001 Manhattan Chelsea and Clinton 2015-09-01 4040.
    ## 10 10001 Manhattan Chelsea and Clinton 2015-10-01 4023.
    ## # ℹ 10,440 more rows
…
